%YAML 1.1
%TAG !u! tag:unity3d.com,2011:
--- !u!114 &11400000
MonoBehaviour:
  m_ObjectHideFlags: 0
  m_CorrespondingSourceObject: {fileID: 0}
  m_PrefabInstance: {fileID: 0}
  m_PrefabAsset: {fileID: 0}
  m_GameObject: {fileID: 0}
  m_Enabled: 1
  m_EditorHideFlags: 0
  m_Script: {fileID: 11500000, guid: ef4075ddc98d8124eb9e6732411e75a3, type: 3}
  m_Name: Hit
  m_EditorClassIdentifier: 
  data:
    audioClips:
      weightedObjects:
      - weight: 1
        contents: {fileID: 8300000, guid: faf6e72be90279542a0b589f93eeaf30, type: 3}
      randomType: 0
    loop: 0
    soundId: 1029bcbddf9abb44faec7efe8f2ca7f8
    standardSettings:
      minPitch: 1
      maxPitch: 1
      minVolume: 1
      maxVolume: 1
      group: {fileID: 0}
    advancedSettings:
      bypassEffects: 0
      bypassListenerEffects: 0
      bypassReverbZones: 0
      reverbZoneMix: 1
    spatialSettings:
      stereoPanMin: 0
      stereoPanMax: 0
      is3D: 0
      dopplerLevel: 1
      spread: 0
      volumeRolloff: 0
      minDistance: 1
      maxDistance: 500
