%YAML 1.1
%TAG !u! tag:unity3d.com,2011:
--- !u!114 &11400000
MonoBehaviour:
  m_ObjectHideFlags: 0
  m_CorrespondingSourceObject: {fileID: 0}
  m_PrefabInstance: {fileID: 0}
  m_PrefabAsset: {fileID: 0}
  m_GameObject: {fileID: 0}
  m_Enabled: 1
  m_EditorHideFlags: 0
  m_Script: {fileID: 11500000, guid: 143365c1c80370a48a4c89e0b158bf44, type: 3}
  m_Name: MMAdditiveLoadingScreenSimple
  m_EditorClassIdentifier: 
  m_path: Assets/Plugins/Feel/MMTools/Tools/MMSceneLoading/LoadingScreens/MMAdditiveLoadingScreenSimple.unity
  m_assetID: 945e5b97212e8e74ebcd35bddde3970c
