%YAML 1.1
%TAG !u! tag:unity3d.com,2011:
--- !u!114 &11400000
MonoBehaviour:
  m_ObjectHideFlags: 0
  m_CorrespondingSourceObject: {fileID: 0}
  m_PrefabInstance: {fileID: 0}
  m_PrefabAsset: {fileID: 0}
  m_GameObject: {fileID: 0}
  m_Enabled: 1
  m_EditorHideFlags: 0
  m_Script: {fileID: 11500000, guid: 1cf0e61517e5e7d4dac78e837e288c38, type: 3}
  m_Name: towerActorReference
  m_EditorClassIdentifier: 
  value: {fileID: 0}
  variableNote: 
  OnVariableUpdate:
    m_PersistentCalls:
      m_Calls: []
  OnVariableReset:
    m_PersistentCalls:
      m_Calls: []
