%YAML 1.1
%TAG !u! tag:unity3d.com,2011:
--- !u!114 &11400000
MonoBehaviour:
  m_ObjectHideFlags: 0
  m_CorrespondingSourceObject: {fileID: 0}
  m_PrefabInstance: {fileID: 0}
  m_PrefabAsset: {fileID: 0}
  m_GameObject: {fileID: 0}
  m_Enabled: 1
  m_EditorHideFlags: 0
  m_Script: {fileID: 11500000, guid: cf8a67b68db3d4650908f8cf6adeda60, type: 3}
  m_Name: rangeCurrentTotalCount
  m_EditorClassIdentifier: 
  _developerDescription: 
  _id: 
  _value: 0
  _changed: {fileID: 0}
  _changedWithHistory: {fileID: 0}
  _triggerChangedOnOnEnable: 0
  _triggerChangedWithHistoryOnOnEnable: 0
  _oldValue: 0
  _initialValue: 0
  _preChangeTransformers: []
