%YAML 1.1
%TAG !u! tag:unity3d.com,2011:
--- !u!1001 &1391040132261547874
PrefabInstance:
  m_ObjectHideFlags: 0
  serializedVersion: 2
  m_Modification:
    m_TransformParent: {fileID: 0}
    m_Modifications:
    - target: {fileID: 6299174909097552393, guid: 69f1616dabdba8e4891dbce35b4b0955, type: 3}
      propertyPath: m_text
      value: 2
      objectReference: {fileID: 0}
    - target: {fileID: 6299174910004639969, guid: 69f1616dabdba8e4891dbce35b4b0955, type: 3}
      propertyPath: m_Name
      value: Range Pad Variant
      objectReference: {fileID: 0}
    - target: {fileID: 6299174910004639974, guid: 69f1616dabdba8e4891dbce35b4b0955, type: 3}
      propertyPath: m_Pivot.x
      value: 0.5
      objectReference: {fileID: 0}
    - target: {fileID: 6299174910004639974, guid: 69f1616dabdba8e4891dbce35b4b0955, type: 3}
      propertyPath: m_Pivot.y
      value: 0.5
      objectReference: {fileID: 0}
    - target: {fileID: 6299174910004639974, guid: 69f1616dabdba8e4891dbce35b4b0955, type: 3}
      propertyPath: m_RootOrder
      value: 0
      objectReference: {fileID: 0}
    - target: {fileID: 6299174910004639974, guid: 69f1616dabdba8e4891dbce35b4b0955, type: 3}
      propertyPath: m_AnchorMax.x
      value: 0.5
      objectReference: {fileID: 0}
    - target: {fileID: 6299174910004639974, guid: 69f1616dabdba8e4891dbce35b4b0955, type: 3}
      propertyPath: m_AnchorMax.y
      value: 0.5
      objectReference: {fileID: 0}
    - target: {fileID: 6299174910004639974, guid: 69f1616dabdba8e4891dbce35b4b0955, type: 3}
      propertyPath: m_AnchorMin.x
      value: 0.5
      objectReference: {fileID: 0}
    - target: {fileID: 6299174910004639974, guid: 69f1616dabdba8e4891dbce35b4b0955, type: 3}
      propertyPath: m_AnchorMin.y
      value: 0.5
      objectReference: {fileID: 0}
    - target: {fileID: 6299174910004639974, guid: 69f1616dabdba8e4891dbce35b4b0955, type: 3}
      propertyPath: m_SizeDelta.x
      value: 35
      objectReference: {fileID: 0}
    - target: {fileID: 6299174910004639974, guid: 69f1616dabdba8e4891dbce35b4b0955, type: 3}
      propertyPath: m_SizeDelta.y
      value: 35
      objectReference: {fileID: 0}
    - target: {fileID: 6299174910004639974, guid: 69f1616dabdba8e4891dbce35b4b0955, type: 3}
      propertyPath: m_LocalPosition.x
      value: 0
      objectReference: {fileID: 0}
    - target: {fileID: 6299174910004639974, guid: 69f1616dabdba8e4891dbce35b4b0955, type: 3}
      propertyPath: m_LocalPosition.y
      value: 0
      objectReference: {fileID: 0}
    - target: {fileID: 6299174910004639974, guid: 69f1616dabdba8e4891dbce35b4b0955, type: 3}
      propertyPath: m_LocalPosition.z
      value: 0
      objectReference: {fileID: 0}
    - target: {fileID: 6299174910004639974, guid: 69f1616dabdba8e4891dbce35b4b0955, type: 3}
      propertyPath: m_LocalRotation.w
      value: 1
      objectReference: {fileID: 0}
    - target: {fileID: 6299174910004639974, guid: 69f1616dabdba8e4891dbce35b4b0955, type: 3}
      propertyPath: m_LocalRotation.x
      value: 0
      objectReference: {fileID: 0}
    - target: {fileID: 6299174910004639974, guid: 69f1616dabdba8e4891dbce35b4b0955, type: 3}
      propertyPath: m_LocalRotation.y
      value: 0
      objectReference: {fileID: 0}
    - target: {fileID: 6299174910004639974, guid: 69f1616dabdba8e4891dbce35b4b0955, type: 3}
      propertyPath: m_LocalRotation.z
      value: 0
      objectReference: {fileID: 0}
    - target: {fileID: 6299174910004639974, guid: 69f1616dabdba8e4891dbce35b4b0955, type: 3}
      propertyPath: m_AnchoredPosition.x
      value: 52.7
      objectReference: {fileID: 0}
    - target: {fileID: 6299174910004639974, guid: 69f1616dabdba8e4891dbce35b4b0955, type: 3}
      propertyPath: m_AnchoredPosition.y
      value: -175.5
      objectReference: {fileID: 0}
    - target: {fileID: 6299174910004639974, guid: 69f1616dabdba8e4891dbce35b4b0955, type: 3}
      propertyPath: m_LocalEulerAnglesHint.x
      value: 0
      objectReference: {fileID: 0}
    - target: {fileID: 6299174910004639974, guid: 69f1616dabdba8e4891dbce35b4b0955, type: 3}
      propertyPath: m_LocalEulerAnglesHint.y
      value: 0
      objectReference: {fileID: 0}
    - target: {fileID: 6299174910004639974, guid: 69f1616dabdba8e4891dbce35b4b0955, type: 3}
      propertyPath: m_LocalEulerAnglesHint.z
      value: 0
      objectReference: {fileID: 0}
    - target: {fileID: 8444274238472860158, guid: 69f1616dabdba8e4891dbce35b4b0955, type: 3}
      propertyPath: _eventReference._event
      value: 
      objectReference: {fileID: 11400000, guid: f22f06b0d715bae48b167f1537a337b8, type: 2}
    m_RemovedComponents: []
  m_SourcePrefab: {fileID: 100100000, guid: 69f1616dabdba8e4891dbce35b4b0955, type: 3}
