%YAML 1.1
%TAG !u! tag:unity3d.com,2011:
--- !u!1045 &1
EditorBuildSettings:
  m_ObjectHideFlags: 0
  serializedVersion: 2
  m_Scenes:
  - enabled: 1
    path: Assets/Scenes/Initialization.unity
    guid: ecb6cce668c1ab74dba44177bcac2d8c
  - enabled: 1
    path: Assets/Scenes/Menu.unity
    guid: 69a75827a11f1644ab90e1986a8d74cc
  - enabled: 1
    path: Assets/Scenes/Gameplay.unity
    guid: 9fc0d4010bbf28b4594072e72b8655ab
  m_configObjects: {}
