%YAML 1.1
%TAG !u! tag:unity3d.com,2011:
--- !u!1001 &695264753766727645
PrefabInstance:
  m_ObjectHideFlags: 0
  serializedVersion: 2
  m_Modification:
    m_TransformParent: {fileID: 0}
    m_Modifications:
    - target: {fileID: 1650720099, guid: 45d649aa7c170404aa5b6203b4ee1774, type: 3}
      propertyPath: m_Materials.Array.data[0]
      value: 
      objectReference: {fileID: 2100000, guid: 348a7751c9e043f459afc762c6963cd6, type: 2}
    - target: {fileID: 3299099444083014261, guid: 45d649aa7c170404aa5b6203b4ee1774, type: 3}
      propertyPath: unitIcon
      value: 
      objectReference: {fileID: -1524725432, guid: 59e6c90447579df40ad9585ce7712188, type: 3}
    - target: {fileID: 3299099444083014261, guid: 45d649aa7c170404aa5b6203b4ee1774, type: 3}
      propertyPath: unitType
      value: 
      objectReference: {fileID: 11400000, guid: c4d45148b78a55f40b6be333d54712db, type: 2}
    - target: {fileID: 3299099444083014261, guid: 45d649aa7c170404aa5b6203b4ee1774, type: 3}
      propertyPath: unitBindCount
      value: 
      objectReference: {fileID: 11400000, guid: b0fcc774f4bb2f24ab90f0c8cbfcdc61, type: 2}
    - target: {fileID: 3299099444083014262, guid: 45d649aa7c170404aa5b6203b4ee1774, type: 3}
      propertyPath: m_RootOrder
      value: 0
      objectReference: {fileID: 0}
    - target: {fileID: 3299099444083014262, guid: 45d649aa7c170404aa5b6203b4ee1774, type: 3}
      propertyPath: m_LocalPosition.x
      value: 3.5944166
      objectReference: {fileID: 0}
    - target: {fileID: 3299099444083014262, guid: 45d649aa7c170404aa5b6203b4ee1774, type: 3}
      propertyPath: m_LocalPosition.y
      value: 0
      objectReference: {fileID: 0}
    - target: {fileID: 3299099444083014262, guid: 45d649aa7c170404aa5b6203b4ee1774, type: 3}
      propertyPath: m_LocalPosition.z
      value: -3.6350386
      objectReference: {fileID: 0}
    - target: {fileID: 3299099444083014262, guid: 45d649aa7c170404aa5b6203b4ee1774, type: 3}
      propertyPath: m_LocalRotation.w
      value: 1
      objectReference: {fileID: 0}
    - target: {fileID: 3299099444083014262, guid: 45d649aa7c170404aa5b6203b4ee1774, type: 3}
      propertyPath: m_LocalRotation.x
      value: 0
      objectReference: {fileID: 0}
    - target: {fileID: 3299099444083014262, guid: 45d649aa7c170404aa5b6203b4ee1774, type: 3}
      propertyPath: m_LocalRotation.y
      value: 0
      objectReference: {fileID: 0}
    - target: {fileID: 3299099444083014262, guid: 45d649aa7c170404aa5b6203b4ee1774, type: 3}
      propertyPath: m_LocalRotation.z
      value: 0
      objectReference: {fileID: 0}
    - target: {fileID: 3299099444083014262, guid: 45d649aa7c170404aa5b6203b4ee1774, type: 3}
      propertyPath: m_LocalEulerAnglesHint.x
      value: 0
      objectReference: {fileID: 0}
    - target: {fileID: 3299099444083014262, guid: 45d649aa7c170404aa5b6203b4ee1774, type: 3}
      propertyPath: m_LocalEulerAnglesHint.y
      value: 0
      objectReference: {fileID: 0}
    - target: {fileID: 3299099444083014262, guid: 45d649aa7c170404aa5b6203b4ee1774, type: 3}
      propertyPath: m_LocalEulerAnglesHint.z
      value: 0
      objectReference: {fileID: 0}
    - target: {fileID: 3299099444083014263, guid: 45d649aa7c170404aa5b6203b4ee1774, type: 3}
      propertyPath: m_Name
      value: WarriorSoul Variant
      objectReference: {fileID: 0}
    m_RemovedComponents: []
  m_SourcePrefab: {fileID: 100100000, guid: 45d649aa7c170404aa5b6203b4ee1774, type: 3}
