%YAML 1.1
%TAG !u! tag:unity3d.com,2011:
--- !u!114 &11400000
MonoBehaviour:
  m_ObjectHideFlags: 0
  m_CorrespondingSourceObject: {fileID: 0}
  m_PrefabInstance: {fileID: 0}
  m_PrefabAsset: {fileID: 0}
  m_GameObject: {fileID: 0}
  m_Enabled: 1
  m_EditorHideFlags: 0
  m_Script: {fileID: 11500000, guid: e3905cc8f34f47645a12318d3b4ba047, type: 3}
  m_Name: Game
  m_EditorClassIdentifier: 
  scene: {fileID: 0}
  OnLoad:
    m_PersistentCalls:
      m_Calls: []
  OnUnload:
    m_PersistentCalls:
      m_Calls: []
  <SceneName>k__BackingField: Gameplay
