%YAML 1.1
%TAG !u! tag:unity3d.com,2011:
--- !u!162 &1
EditorUserSettings:
  m_ObjectHideFlags: 0
  serializedVersion: 4
  m_ConfigSettings:
    RecentlyUsedSceneGuid-0:
      value: 0653040206030b5f5e57097342270c44464e4b7f7a2c20667c704b67e4b56c61
      flags: 0
    RecentlyUsedSceneGuid-1:
      value: 50055003505751090f5b587b4274594445164e782d7974692c701930e7b9356b
      flags: 0
    RecentlyUsedSceneGuid-2:
      value: 51030d515501595a5e0c557747250d44404e4f7d7f2d716528714e61b7b5323d
      flags: 0
    RecentlyUsedSceneGuid-3:
      value: 5a5757560101590a5d0c0e24427b5d44434e4c7a7b7a23677f2b4565b7b5353a
      flags: 0
    RecentlyUsedSceneGuid-4:
      value: 55085551500d5b0c0c5f5d2441750b441715417a29797f687b284537b5b4373b
      flags: 0
    RecentlyUsedSceneGuid-5:
      value: 0652565006560c0d5b560f73112108441215197e787971672f2a1c30b0e46c3b
      flags: 0
    vcSharedLogLevel:
      value: 0d5e400f0650
      flags: 0
  m_VCAutomaticAdd: 1
  m_VCDebugCom: 0
  m_VCDebugCmd: 0
  m_VCDebugOut: 0
  m_SemanticMergeMode: 2
  m_DesiredImportWorkerCount: 3
  m_StandbyImportWorkerCount: 2
  m_IdleImportWorkerShutdownDelay: 60000
  m_VCShowFailedCheckout: 1
  m_VCOverwriteFailedCheckoutAssets: 1
  m_VCProjectOverlayIcons: 1
  m_VCHierarchyOverlayIcons: 1
  m_VCOtherOverlayIcons: 1
  m_VCAllowAsyncUpdate: 1
  m_ArtifactGarbageCollection: 1
