{
    "name": "PlayerInputActions",
    "maps": [
        {
            "name": "UnitManagement",
            "id": "782c22fb-343e-466a-8599-d95e2a331fa9",
            "actions": [
                {
                    "name": "UnitSpawn",
                    "type": "Button",
                    "id": "bcdf087d-468e-4c09-968f-6120e3e6deb6",
                    "expectedControlType": "Button",
                    "processors": "",
                    "interactions": "",
                    "initialStateCheck": false
                },
                {
                    "name": "Select",
                    "type": "Button",
                    "id": "616954fb-bacc-4d8e-ac82-7bfc64d9278d",
                    "expectedControlType": "Button",
                    "processors": "",
                    "interactions": "",
                    "initialStateCheck": false
                },
                {
                    "name": "SetInclusiveSelection",
                    "type": "Button",
                    "id": "8df0c583-2825-4dec-af01-452890bf03da",
                    "expectedControlType": "Button",
                    "processors": "",
                    "interactions": "",
                    "initialStateCheck": false
                },
                {
                    "name": "CommandUnits",
                    "type": "Button",
                    "id": "358b3e4c-162a-48d0-88be-6ac4d9592c6e",
                    "expectedControlType": "Button",
                    "processors": "",
                    "interactions": "",
                    "initialStateCheck": false
                }
            ],
            "bindings": [
                {
                    "name": "",
                    "id": "f82f2bb7-3275-4cc2-a3df-e75b01a9823f",
                    "path": "<Mouse>/leftButton",
                    "interactions": "",
                    "processors": "",
                    "groups": "",
                    "action": "UnitSpawn",
                    "isComposite": false,
                    "isPartOfComposite": false
                },
                {
                    "name": "",
                    "id": "168b4ec9-3e73-43c3-b442-9d0b832327ff",
                    "path": "<Mouse>/leftButton",
                    "interactions": "",
                    "processors": "",
                    "groups": "",
                    "action": "Select",
                    "isComposite": false,
                    "isPartOfComposite": false
                },
                {
                    "name": "",
                    "id": "eb7a47ec-880c-40d7-be19-ab6e1865897a",
                    "path": "<Keyboard>/leftShift",
                    "interactions": "",
                    "processors": "",
                    "groups": "",
                    "action": "SetInclusiveSelection",
                    "isComposite": false,
                    "isPartOfComposite": false
                },
                {
                    "name": "",
                    "id": "391eb7e2-85af-41a1-b57c-a8fac2d19bef",
                    "path": "<Mouse>/rightButton",
                    "interactions": "",
                    "processors": "",
                    "groups": "",
                    "action": "CommandUnits",
                    "isComposite": false,
                    "isPartOfComposite": false
                }
            ]
        },
        {
            "name": "PlayerMovement",
            "id": "9cfbfa37-730e-46e1-881a-868613c4623b",
            "actions": [
                {
                    "name": "Movement",
                    "type": "Value",
                    "id": "e662aa61-5035-427e-9019-63ba902f7b28",
                    "expectedControlType": "Vector2",
                    "processors": "",
                    "interactions": "",
                    "initialStateCheck": true
                },
                {
                    "name": "Mouse",
                    "type": "Value",
                    "id": "dcff95d7-71c0-4aec-96bd-ded76495e8d5",
                    "expectedControlType": "Vector2",
                    "processors": "",
                    "interactions": "",
                    "initialStateCheck": true
                }
            ],
            "bindings": [
                {
                    "name": "2D Vector",
                    "id": "7f01be97-c433-4673-a776-974cc0ea412c",
                    "path": "2DVector",
                    "interactions": "",
                    "processors": "",
                    "groups": "",
                    "action": "Movement",
                    "isComposite": true,
                    "isPartOfComposite": false
                },
                {
                    "name": "up",
                    "id": "e4e74d5b-47ad-4c75-871c-fce39df57d0a",
                    "path": "<Keyboard>/w",
                    "interactions": "",
                    "processors": "",
                    "groups": "",
                    "action": "Movement",
                    "isComposite": false,
                    "isPartOfComposite": true
                },
                {
                    "name": "down",
                    "id": "4c724e12-4fc1-4166-90ae-773c79780db4",
                    "path": "<Keyboard>/s",
                    "interactions": "",
                    "processors": "",
                    "groups": "",
                    "action": "Movement",
                    "isComposite": false,
                    "isPartOfComposite": true
                },
                {
                    "name": "left",
                    "id": "9d981afa-d2cf-4a4b-b8a3-2242a41318cd",
                    "path": "<Keyboard>/a",
                    "interactions": "",
                    "processors": "",
                    "groups": "",
                    "action": "Movement",
                    "isComposite": false,
                    "isPartOfComposite": true
                },
                {
                    "name": "right",
                    "id": "8679e94e-0388-4b08-acfe-ae3aa41799bf",
                    "path": "<Keyboard>/d",
                    "interactions": "",
                    "processors": "",
                    "groups": "",
                    "action": "Movement",
                    "isComposite": false,
                    "isPartOfComposite": true
                },
                {
                    "name": "",
                    "id": "4d30f701-5079-4430-814e-540f71b13db7",
                    "path": "<Mouse>/position",
                    "interactions": "",
                    "processors": "",
                    "groups": "",
                    "action": "Mouse",
                    "isComposite": false,
                    "isPartOfComposite": false
                }
            ]
        },
        {
            "name": "PlayerPower",
            "id": "e8e669e6-3545-462f-83e1-4fd6c621c9fd",
            "actions": [
                {
                    "name": "Absorb",
                    "type": "Button",
                    "id": "09a7a0ea-b276-49ec-9e08-9a72b5be32e8",
                    "expectedControlType": "Button",
                    "processors": "",
                    "interactions": "",
                    "initialStateCheck": false
                },
                {
                    "name": "Bind",
                    "type": "Button",
                    "id": "54a50fc3-50ff-4167-aa17-792eaa339535",
                    "expectedControlType": "Button",
                    "processors": "",
                    "interactions": "",
                    "initialStateCheck": false
                },
                {
                    "name": "Attack",
                    "type": "Button",
                    "id": "305af6a1-188a-41fc-8e0c-62602caf8185",
                    "expectedControlType": "Button",
                    "processors": "",
                    "interactions": "",
                    "initialStateCheck": false
                }
            ],
            "bindings": [
                {
                    "name": "",
                    "id": "0a4e07c6-01a6-4ed9-aa35-a06184b695ba",
                    "path": "<Keyboard>/r",
                    "interactions": "",
                    "processors": "",
                    "groups": "",
                    "action": "Bind",
                    "isComposite": false,
                    "isPartOfComposite": false
                },
                {
                    "name": "",
                    "id": "d0ed656c-33bd-4646-8a37-427642478d93",
                    "path": "<Keyboard>/e",
                    "interactions": "",
                    "processors": "",
                    "groups": "",
                    "action": "Absorb",
                    "isComposite": false,
                    "isPartOfComposite": false
                },
                {
                    "name": "",
                    "id": "6f5834c4-c8ab-4522-b02e-bdc61a631dc3",
                    "path": "<Keyboard>/space",
                    "interactions": "",
                    "processors": "",
                    "groups": "",
                    "action": "Attack",
                    "isComposite": false,
                    "isPartOfComposite": false
                }
            ]
        },
        {
            "name": "UnitSpawning",
            "id": "5a9f3577-7e6e-4ada-b0d6-0bf7829cf9f3",
            "actions": [
                {
                    "name": "WarriorSelect",
                    "type": "Button",
                    "id": "76a94e77-a068-4bcb-b731-704e87654ddc",
                    "expectedControlType": "Button",
                    "processors": "",
                    "interactions": "",
                    "initialStateCheck": false
                },
                {
                    "name": "RangeSelect",
                    "type": "Button",
                    "id": "cc0a54eb-972c-4b7d-bb08-4df1c014ed4f",
                    "expectedControlType": "Button",
                    "processors": "",
                    "interactions": "",
                    "initialStateCheck": false
                },
                {
                    "name": "ChonkySelect",
                    "type": "Button",
                    "id": "08a9dd09-0bc3-4fc9-a54e-b22977c25ac4",
                    "expectedControlType": "Button",
                    "processors": "",
                    "interactions": "",
                    "initialStateCheck": false
                }
            ],
            "bindings": [
                {
                    "name": "",
                    "id": "2cf45312-8798-42f5-95a8-1a930a9e81cf",
                    "path": "<Keyboard>/1",
                    "interactions": "",
                    "processors": "",
                    "groups": "",
                    "action": "WarriorSelect",
                    "isComposite": false,
                    "isPartOfComposite": false
                },
                {
                    "name": "",
                    "id": "fc9fc9be-8e0f-4d22-9ba2-59895950fcf9",
                    "path": "<Keyboard>/2",
                    "interactions": "",
                    "processors": "",
                    "groups": "",
                    "action": "RangeSelect",
                    "isComposite": false,
                    "isPartOfComposite": false
                },
                {
                    "name": "",
                    "id": "03ee5c04-4640-4812-9ae3-9c18695ae653",
                    "path": "<Keyboard>/3",
                    "interactions": "",
                    "processors": "",
                    "groups": "",
                    "action": "ChonkySelect",
                    "isComposite": false,
                    "isPartOfComposite": false
                }
            ]
        }
    ],
    "controlSchemes": []
}