%YAML 1.1
%TAG !u! tag:unity3d.com,2011:
--- !u!74 &7400000
AnimationClip:
  m_ObjectHideFlags: 0
  m_CorrespondingSourceObject: {fileID: 0}
  m_PrefabInstance: {fileID: 0}
  m_PrefabAsset: {fileID: 0}
  m_Name: ANI_UI_BlueFire
  serializedVersion: 6
  m_Legacy: 0
  m_Compressed: 0
  m_UseHighQualityCurve: 1
  m_RotationCurves: []
  m_CompressedRotationCurves: []
  m_EulerCurves: []
  m_PositionCurves: []
  m_ScaleCurves: []
  m_FloatCurves: []
  m_PPtrCurves:
  - curve:
    - time: 0
      value: {fileID: 96963062, guid: 15b6c67f7d201e3429cbe6591cf61282, type: 3}
    - time: 0.016666668
      value: {fileID: -2145505214, guid: 15b6c67f7d201e3429cbe6591cf61282, type: 3}
    - time: 0.033333335
      value: {fileID: -570106225, guid: 15b6c67f7d201e3429cbe6591cf61282, type: 3}
    - time: 0.05
      value: {fileID: -2134378643, guid: 15b6c67f7d201e3429cbe6591cf61282, type: 3}
    - time: 0.06666667
      value: {fileID: 605762358, guid: 15b6c67f7d201e3429cbe6591cf61282, type: 3}
    - time: 0.083333336
      value: {fileID: 2133998822, guid: 15b6c67f7d201e3429cbe6591cf61282, type: 3}
    - time: 0.1
      value: {fileID: 2047247559, guid: 15b6c67f7d201e3429cbe6591cf61282, type: 3}
    - time: 0.11666667
      value: {fileID: 730532083, guid: 15b6c67f7d201e3429cbe6591cf61282, type: 3}
    - time: 0.13333334
      value: {fileID: 783987803, guid: 15b6c67f7d201e3429cbe6591cf61282, type: 3}
    - time: 0.15
      value: {fileID: -1825607495, guid: 15b6c67f7d201e3429cbe6591cf61282, type: 3}
    - time: 0.16666667
      value: {fileID: -1124412810, guid: 15b6c67f7d201e3429cbe6591cf61282, type: 3}
    - time: 0.18333334
      value: {fileID: 531781866, guid: 15b6c67f7d201e3429cbe6591cf61282, type: 3}
    - time: 0.2
      value: {fileID: 1239464692, guid: 15b6c67f7d201e3429cbe6591cf61282, type: 3}
    - time: 0.21666667
      value: {fileID: -1824427615, guid: 15b6c67f7d201e3429cbe6591cf61282, type: 3}
    - time: 0.23333333
      value: {fileID: -1876103940, guid: 15b6c67f7d201e3429cbe6591cf61282, type: 3}
    - time: 0.25
      value: {fileID: 865252097, guid: 15b6c67f7d201e3429cbe6591cf61282, type: 3}
    - time: 0.26666668
      value: {fileID: 518325950, guid: 15b6c67f7d201e3429cbe6591cf61282, type: 3}
    - time: 0.28333333
      value: {fileID: 424704683, guid: 15b6c67f7d201e3429cbe6591cf61282, type: 3}
    - time: 0.3
      value: {fileID: -1540035938, guid: 15b6c67f7d201e3429cbe6591cf61282, type: 3}
    - time: 0.31666666
      value: {fileID: 505370982, guid: 15b6c67f7d201e3429cbe6591cf61282, type: 3}
    - time: 0.33333334
      value: {fileID: 844939466, guid: 15b6c67f7d201e3429cbe6591cf61282, type: 3}
    - time: 0.35
      value: {fileID: 1333337343, guid: 15b6c67f7d201e3429cbe6591cf61282, type: 3}
    - time: 0.36666667
      value: {fileID: -1233086617, guid: 15b6c67f7d201e3429cbe6591cf61282, type: 3}
    - time: 0.38333333
      value: {fileID: -820816127, guid: 15b6c67f7d201e3429cbe6591cf61282, type: 3}
    - time: 0.4
      value: {fileID: -1959017969, guid: 15b6c67f7d201e3429cbe6591cf61282, type: 3}
    - time: 0.41666666
      value: {fileID: -1815593487, guid: 15b6c67f7d201e3429cbe6591cf61282, type: 3}
    - time: 0.43333334
      value: {fileID: -1283713836, guid: 15b6c67f7d201e3429cbe6591cf61282, type: 3}
    - time: 0.45
      value: {fileID: 826347702, guid: 15b6c67f7d201e3429cbe6591cf61282, type: 3}
    - time: 0.46666667
      value: {fileID: 347294196, guid: 15b6c67f7d201e3429cbe6591cf61282, type: 3}
    - time: 0.48333332
      value: {fileID: -589947624, guid: 15b6c67f7d201e3429cbe6591cf61282, type: 3}
    - time: 0.5
      value: {fileID: 1038638464, guid: 15b6c67f7d201e3429cbe6591cf61282, type: 3}
    - time: 0.51666665
      value: {fileID: -46141985, guid: 15b6c67f7d201e3429cbe6591cf61282, type: 3}
    - time: 0.53333336
      value: {fileID: -1111620454, guid: 15b6c67f7d201e3429cbe6591cf61282, type: 3}
    - time: 0.55
      value: {fileID: -2056754509, guid: 15b6c67f7d201e3429cbe6591cf61282, type: 3}
    - time: 0.56666666
      value: {fileID: -361904455, guid: 15b6c67f7d201e3429cbe6591cf61282, type: 3}
    - time: 0.5833333
      value: {fileID: 892515188, guid: 15b6c67f7d201e3429cbe6591cf61282, type: 3}
    - time: 0.6
      value: {fileID: 836274551, guid: 15b6c67f7d201e3429cbe6591cf61282, type: 3}
    - time: 0.6166667
      value: {fileID: 1724370217, guid: 15b6c67f7d201e3429cbe6591cf61282, type: 3}
    - time: 0.6333333
      value: {fileID: 1487004514, guid: 15b6c67f7d201e3429cbe6591cf61282, type: 3}
    - time: 0.65
      value: {fileID: 826217803, guid: 15b6c67f7d201e3429cbe6591cf61282, type: 3}
    - time: 0.6666667
      value: {fileID: -1825048303, guid: 15b6c67f7d201e3429cbe6591cf61282, type: 3}
    - time: 0.68333334
      value: {fileID: 773326206, guid: 15b6c67f7d201e3429cbe6591cf61282, type: 3}
    - time: 0.7
      value: {fileID: 491966163, guid: 15b6c67f7d201e3429cbe6591cf61282, type: 3}
    - time: 0.71666664
      value: {fileID: -879622232, guid: 15b6c67f7d201e3429cbe6591cf61282, type: 3}
    - time: 0.73333335
      value: {fileID: 459846328, guid: 15b6c67f7d201e3429cbe6591cf61282, type: 3}
    - time: 0.75
      value: {fileID: -1141135302, guid: 15b6c67f7d201e3429cbe6591cf61282, type: 3}
    - time: 0.76666665
      value: {fileID: -1514900007, guid: 15b6c67f7d201e3429cbe6591cf61282, type: 3}
    - time: 0.78333336
      value: {fileID: -1952389931, guid: 15b6c67f7d201e3429cbe6591cf61282, type: 3}
    - time: 0.8
      value: {fileID: -311512577, guid: 15b6c67f7d201e3429cbe6591cf61282, type: 3}
    - time: 0.81666666
      value: {fileID: -968461040, guid: 15b6c67f7d201e3429cbe6591cf61282, type: 3}
    - time: 0.8333333
      value: {fileID: -185714266, guid: 15b6c67f7d201e3429cbe6591cf61282, type: 3}
    - time: 0.85
      value: {fileID: -255935309, guid: 15b6c67f7d201e3429cbe6591cf61282, type: 3}
    - time: 0.8666667
      value: {fileID: 587063288, guid: 15b6c67f7d201e3429cbe6591cf61282, type: 3}
    - time: 0.8833333
      value: {fileID: -282454865, guid: 15b6c67f7d201e3429cbe6591cf61282, type: 3}
    - time: 0.9
      value: {fileID: -1228026694, guid: 15b6c67f7d201e3429cbe6591cf61282, type: 3}
    - time: 0.9166667
      value: {fileID: 445754477, guid: 15b6c67f7d201e3429cbe6591cf61282, type: 3}
    - time: 0.93333334
      value: {fileID: -753133207, guid: 15b6c67f7d201e3429cbe6591cf61282, type: 3}
    - time: 0.95
      value: {fileID: 1963722290, guid: 15b6c67f7d201e3429cbe6591cf61282, type: 3}
    - time: 0.96666664
      value: {fileID: -2041308283, guid: 15b6c67f7d201e3429cbe6591cf61282, type: 3}
    - time: 0.98333335
      value: {fileID: -1404325160, guid: 15b6c67f7d201e3429cbe6591cf61282, type: 3}
    attribute: m_Sprite
    path: 
    classID: 114
    script: {fileID: 11500000, guid: fe87c0e1cc204ed48ad3b37840f39efc, type: 3}
  m_SampleRate: 60
  m_WrapMode: 0
  m_Bounds:
    m_Center: {x: 0, y: 0, z: 0}
    m_Extent: {x: 0, y: 0, z: 0}
  m_ClipBindingConstant:
    genericBindings:
    - serializedVersion: 2
      path: 0
      attribute: 2015549526
      script: {fileID: 11500000, guid: fe87c0e1cc204ed48ad3b37840f39efc, type: 3}
      typeID: 114
      customType: 0
      isPPtrCurve: 1
    pptrCurveMapping:
    - {fileID: 96963062, guid: 15b6c67f7d201e3429cbe6591cf61282, type: 3}
    - {fileID: -2145505214, guid: 15b6c67f7d201e3429cbe6591cf61282, type: 3}
    - {fileID: -570106225, guid: 15b6c67f7d201e3429cbe6591cf61282, type: 3}
    - {fileID: -2134378643, guid: 15b6c67f7d201e3429cbe6591cf61282, type: 3}
    - {fileID: 605762358, guid: 15b6c67f7d201e3429cbe6591cf61282, type: 3}
    - {fileID: 2133998822, guid: 15b6c67f7d201e3429cbe6591cf61282, type: 3}
    - {fileID: 2047247559, guid: 15b6c67f7d201e3429cbe6591cf61282, type: 3}
    - {fileID: 730532083, guid: 15b6c67f7d201e3429cbe6591cf61282, type: 3}
    - {fileID: 783987803, guid: 15b6c67f7d201e3429cbe6591cf61282, type: 3}
    - {fileID: -1825607495, guid: 15b6c67f7d201e3429cbe6591cf61282, type: 3}
    - {fileID: -1124412810, guid: 15b6c67f7d201e3429cbe6591cf61282, type: 3}
    - {fileID: 531781866, guid: 15b6c67f7d201e3429cbe6591cf61282, type: 3}
    - {fileID: 1239464692, guid: 15b6c67f7d201e3429cbe6591cf61282, type: 3}
    - {fileID: -1824427615, guid: 15b6c67f7d201e3429cbe6591cf61282, type: 3}
    - {fileID: -1876103940, guid: 15b6c67f7d201e3429cbe6591cf61282, type: 3}
    - {fileID: 865252097, guid: 15b6c67f7d201e3429cbe6591cf61282, type: 3}
    - {fileID: 518325950, guid: 15b6c67f7d201e3429cbe6591cf61282, type: 3}
    - {fileID: 424704683, guid: 15b6c67f7d201e3429cbe6591cf61282, type: 3}
    - {fileID: -1540035938, guid: 15b6c67f7d201e3429cbe6591cf61282, type: 3}
    - {fileID: 505370982, guid: 15b6c67f7d201e3429cbe6591cf61282, type: 3}
    - {fileID: 844939466, guid: 15b6c67f7d201e3429cbe6591cf61282, type: 3}
    - {fileID: 1333337343, guid: 15b6c67f7d201e3429cbe6591cf61282, type: 3}
    - {fileID: -1233086617, guid: 15b6c67f7d201e3429cbe6591cf61282, type: 3}
    - {fileID: -820816127, guid: 15b6c67f7d201e3429cbe6591cf61282, type: 3}
    - {fileID: -1959017969, guid: 15b6c67f7d201e3429cbe6591cf61282, type: 3}
    - {fileID: -1815593487, guid: 15b6c67f7d201e3429cbe6591cf61282, type: 3}
    - {fileID: -1283713836, guid: 15b6c67f7d201e3429cbe6591cf61282, type: 3}
    - {fileID: 826347702, guid: 15b6c67f7d201e3429cbe6591cf61282, type: 3}
    - {fileID: 347294196, guid: 15b6c67f7d201e3429cbe6591cf61282, type: 3}
    - {fileID: -589947624, guid: 15b6c67f7d201e3429cbe6591cf61282, type: 3}
    - {fileID: 1038638464, guid: 15b6c67f7d201e3429cbe6591cf61282, type: 3}
    - {fileID: -46141985, guid: 15b6c67f7d201e3429cbe6591cf61282, type: 3}
    - {fileID: -1111620454, guid: 15b6c67f7d201e3429cbe6591cf61282, type: 3}
    - {fileID: -2056754509, guid: 15b6c67f7d201e3429cbe6591cf61282, type: 3}
    - {fileID: -361904455, guid: 15b6c67f7d201e3429cbe6591cf61282, type: 3}
    - {fileID: 892515188, guid: 15b6c67f7d201e3429cbe6591cf61282, type: 3}
    - {fileID: 836274551, guid: 15b6c67f7d201e3429cbe6591cf61282, type: 3}
    - {fileID: 1724370217, guid: 15b6c67f7d201e3429cbe6591cf61282, type: 3}
    - {fileID: 1487004514, guid: 15b6c67f7d201e3429cbe6591cf61282, type: 3}
    - {fileID: 826217803, guid: 15b6c67f7d201e3429cbe6591cf61282, type: 3}
    - {fileID: -1825048303, guid: 15b6c67f7d201e3429cbe6591cf61282, type: 3}
    - {fileID: 773326206, guid: 15b6c67f7d201e3429cbe6591cf61282, type: 3}
    - {fileID: 491966163, guid: 15b6c67f7d201e3429cbe6591cf61282, type: 3}
    - {fileID: -879622232, guid: 15b6c67f7d201e3429cbe6591cf61282, type: 3}
    - {fileID: 459846328, guid: 15b6c67f7d201e3429cbe6591cf61282, type: 3}
    - {fileID: -1141135302, guid: 15b6c67f7d201e3429cbe6591cf61282, type: 3}
    - {fileID: -1514900007, guid: 15b6c67f7d201e3429cbe6591cf61282, type: 3}
    - {fileID: -1952389931, guid: 15b6c67f7d201e3429cbe6591cf61282, type: 3}
    - {fileID: -311512577, guid: 15b6c67f7d201e3429cbe6591cf61282, type: 3}
    - {fileID: -968461040, guid: 15b6c67f7d201e3429cbe6591cf61282, type: 3}
    - {fileID: -185714266, guid: 15b6c67f7d201e3429cbe6591cf61282, type: 3}
    - {fileID: -255935309, guid: 15b6c67f7d201e3429cbe6591cf61282, type: 3}
    - {fileID: 587063288, guid: 15b6c67f7d201e3429cbe6591cf61282, type: 3}
    - {fileID: -282454865, guid: 15b6c67f7d201e3429cbe6591cf61282, type: 3}
    - {fileID: -1228026694, guid: 15b6c67f7d201e3429cbe6591cf61282, type: 3}
    - {fileID: 445754477, guid: 15b6c67f7d201e3429cbe6591cf61282, type: 3}
    - {fileID: -753133207, guid: 15b6c67f7d201e3429cbe6591cf61282, type: 3}
    - {fileID: 1963722290, guid: 15b6c67f7d201e3429cbe6591cf61282, type: 3}
    - {fileID: -2041308283, guid: 15b6c67f7d201e3429cbe6591cf61282, type: 3}
    - {fileID: -1404325160, guid: 15b6c67f7d201e3429cbe6591cf61282, type: 3}
  m_AnimationClipSettings:
    serializedVersion: 2
    m_AdditiveReferencePoseClip: {fileID: 0}
    m_AdditiveReferencePoseTime: 0
    m_StartTime: 0
    m_StopTime: 1
    m_OrientationOffsetY: 0
    m_Level: 0
    m_CycleOffset: 0
    m_HasAdditiveReferencePose: 0
    m_LoopTime: 1
    m_LoopBlend: 0
    m_LoopBlendOrientation: 0
    m_LoopBlendPositionY: 0
    m_LoopBlendPositionXZ: 0
    m_KeepOriginalOrientation: 0
    m_KeepOriginalPositionY: 1
    m_KeepOriginalPositionXZ: 0
    m_HeightFromFeet: 0
    m_Mirror: 0
  m_EditorCurves: []
  m_EulerEditorCurves: []
  m_HasGenericRootTransform: 0
  m_HasMotionFloatCurves: 0
  m_Events: []
